%YAML 1.1
%TAG !u! tag:unity3d.com,2011:
--- !u!1 &9080364626640179643
GameObject:
  m_ObjectHideFlags: 0
  m_CorrespondingSourceObject: {fileID: 0}
  m_PrefabInstance: {fileID: 0}
  m_PrefabAsset: {fileID: 0}
  serializedVersion: 6
  m_Component:
  - component: {fileID: 5557404266978897215}
  - component: {fileID: 7429476641951673397}
  m_Layer: 0
  m_Name: StunEffect
  m_TagString: Untagged
  m_Icon: {fileID: 0}
  m_NavMeshLayer: 0
  m_StaticEditorFlags: 0
  m_IsActive: 1
--- !u!4 &5557404266978897215
Transform:
  m_ObjectHideFlags: 0
  m_CorrespondingSourceObject: {fileID: 0}
  m_PrefabInstance: {fileID: 0}
  m_PrefabAsset: {fileID: 0}
  m_GameObject: {fileID: 9080364626640179643}
  m_LocalRotation: {x: 0, y: 0, z: 0, w: 1}
  m_LocalPosition: {x: 471.77295, y: -321.757, z: -508.13898}
  m_LocalScale: {x: 1, y: 1, z: 1}
  m_Children: []
  m_Father: {fileID: 0}
  m_RootOrder: 0
  m_LocalEulerAnglesHint: {x: 0, y: 0, z: 0}
--- !u!114 &7429476641951673397
MonoBehaviour:
  m_ObjectHideFlags: 0
  m_CorrespondingSourceObject: {fileID: 0}
  m_PrefabInstance: {fileID: 0}
  m_PrefabAsset: {fileID: 0}
  m_GameObject: {fileID: 9080364626640179643}
  m_Enabled: 1
  m_EditorHideFlags: 0
  m_Script: {fileID: 11500000, guid: 9ae42ee64e6fd2748a3d6ad4703a7142, type: 3}
  m_Name: 
  m_EditorClassIdentifier: 
  type: 1
  name: 5
  canApplyStatChanges: 0
  damageModifier: 0
  strengthModifier: 0
  intellectModifier: 0
  agilityModifier: 0
  staminaModifier: 0
  armorModifier: 0
  magicResistModifier: 0
  healthRegenValueModifier: 0
  manaRegenValueModifier: 0
  movementSpeedModifier: 0
  attackSpeedModifier: 0
  critChanceModifier: 0
  healingTaken: 1
  healPercentage: 0
  deathImmunity: 0
  ccType: 0
  typeDuration: 0
  isHeal: 0
  damageOverTime: 0
  damageTickSpeed: 0
  icon: 0
  lifeTime: 4
  stacks: 1
  maxStacks: 1
  isDestroyed: 0
