%YAML 1.1
%TAG !u! tag:unity3d.com,2011:
--- !u!1 &6011408051248119345
GameObject:
  m_ObjectHideFlags: 0
  m_CorrespondingSourceObject: {fileID: 0}
  m_PrefabInstance: {fileID: 0}
  m_PrefabAsset: {fileID: 0}
  serializedVersion: 6
  m_Component:
  - component: {fileID: 7542897668803550417}
  - component: {fileID: 833076006606629312}
  m_Layer: 0
  m_Name: MortalStrike
  m_TagString: Untagged
  m_Icon: {fileID: 0}
  m_NavMeshLayer: 0
  m_StaticEditorFlags: 0
  m_IsActive: 1
--- !u!4 &7542897668803550417
Transform:
  m_ObjectHideFlags: 0
  m_CorrespondingSourceObject: {fileID: 0}
  m_PrefabInstance: {fileID: 0}
  m_PrefabAsset: {fileID: 0}
  m_GameObject: {fileID: 6011408051248119345}
  m_LocalRotation: {x: 0, y: 0, z: 0, w: 1}
  m_LocalPosition: {x: 471.77295, y: -321.757, z: -508.13898}
  m_LocalScale: {x: 1, y: 1, z: 1}
  m_Children: []
  m_Father: {fileID: 0}
  m_RootOrder: 0
  m_LocalEulerAnglesHint: {x: 0, y: 0, z: 0}
--- !u!114 &833076006606629312
MonoBehaviour:
  m_ObjectHideFlags: 0
  m_CorrespondingSourceObject: {fileID: 0}
  m_PrefabInstance: {fileID: 0}
  m_PrefabAsset: {fileID: 0}
  m_GameObject: {fileID: 6011408051248119345}
  m_Enabled: 1
  m_EditorHideFlags: 0
  m_Script: {fileID: 11500000, guid: 7a418d5d5869ec944a1dc45affe1945c, type: 3}
  m_Name: 
  m_EditorClassIdentifier: 
  id: 5
  spellName: Mortal Strike
  description: 
  icon: 2
  cost: 35
  resource: 0
  abilityType: 0
  castTime: 0
  isCasting: 0
  cooldown: 1
  range: 4
  type: 0
  validTargets: []
  delayTime: 0
  castAnimation: 
  damage: 100
  heal: 0
  critChance: 0
  effects: []
