%YAML 1.1
%TAG !u! tag:unity3d.com,2011:
--- !u!1 &4946167539560089042
GameObject:
  m_ObjectHideFlags: 0
  m_CorrespondingSourceObject: {fileID: 0}
  m_PrefabInstance: {fileID: 0}
  m_PrefabAsset: {fileID: 0}
  serializedVersion: 6
  m_Component:
  - component: {fileID: 5040954219843031756}
  - component: {fileID: 974827726941946343}
  m_Layer: 10
  m_Name: CircleHealing
  m_TagString: Untagged
  m_Icon: {fileID: 0}
  m_NavMeshLayer: 0
  m_StaticEditorFlags: 0
  m_IsActive: 1
--- !u!4 &5040954219843031756
Transform:
  m_ObjectHideFlags: 0
  m_CorrespondingSourceObject: {fileID: 0}
  m_PrefabInstance: {fileID: 0}
  m_PrefabAsset: {fileID: 0}
  m_GameObject: {fileID: 4946167539560089042}
  m_LocalRotation: {x: 0, y: 0, z: 0, w: 1}
  m_LocalPosition: {x: 0, y: 0, z: 0}
  m_LocalScale: {x: 1, y: 1, z: 1}
  m_Children: []
  m_Father: {fileID: 0}
  m_RootOrder: 0
  m_LocalEulerAnglesHint: {x: 0, y: 0, z: 0}
--- !u!114 &974827726941946343
MonoBehaviour:
  m_ObjectHideFlags: 0
  m_CorrespondingSourceObject: {fileID: 0}
  m_PrefabInstance: {fileID: 0}
  m_PrefabAsset: {fileID: 0}
  m_GameObject: {fileID: 4946167539560089042}
  m_Enabled: 1
  m_EditorHideFlags: 0
  m_Script: {fileID: 11500000, guid: 3e09ae9669664eb47b0adfc6f0dc1ede, type: 3}
  m_Name: 
  m_EditorClassIdentifier: 
  id: 19
  spellName: CircleHealing
  description: 
  icon: 0
  cost: 100
  resource: 1
  abilityType: 0
  castTime: 0
  isCasting: 0
  isSelfCast: 0
  cooldown: 6
  range: 30
  type: 0
  validTargets: []
  delayTime: 0
  castAnimation: cast_01
  damage: 0
  heal: 1000
  critChance: 2
  effects: []
  AoeModel: 7
  aoe: {fileID: 899030683872630800, guid: 5a6bbe6898dc1fa47a1774028e6223ff, type: 3}
  areaRadius: 8
  destroyAfter: 1
  damageTickSpeed: 0
  eligibleTargets: 0
  isSkillshot: 1
